<?xml version="1.0" encoding="UTF-8" standalone="no"?>
<!-- Created with Inkscape (http://www.inkscape.org/) -->

<svg
   xmlns:dc="http://purl.org/dc/elements/1.1/"
   xmlns:cc="http://creativecommons.org/ns#"
   xmlns:rdf="http://www.w3.org/1999/02/22-rdf-syntax-ns#"
   xmlns:svg="http://www.w3.org/2000/svg"
   xmlns="http://www.w3.org/2000/svg"
   xmlns:sodipodi="http://sodipodi.sourceforge.net/DTD/sodipodi-0.dtd"
   xmlns:inkscape="http://www.inkscape.org/namespaces/inkscape"
   width="130mm"
   height="130mm"
   viewBox="0 0 130 130"
   version="1.1"
   id="svg8"
   inkscape:version="0.92.5 (0.92.5+68)"
   sodipodi:docname="lookup.svg">
  <defs
     id="defs2">
    <marker
       inkscape:isstock="true"
       style="overflow:visible;"
       id="marker8430"
       refX="0.0"
       refY="0.0"
       orient="auto"
       inkscape:stockid="Arrow1Mend">
      <path
         transform="scale(0.4) rotate(180) translate(10,0)"
         style="fill-rule:evenodd;stroke:#000000;stroke-width:1pt;stroke-opacity:1;fill:#000000;fill-opacity:1"
         d="M 0.0,0.0 L 5.0,-5.0 L -12.5,0.0 L 5.0,5.0 L 0.0,0.0 z "
         id="path8428" />
    </marker>
    <marker
       inkscape:isstock="true"
       style="overflow:visible"
       id="marker8378"
       refX="0.0"
       refY="0.0"
       orient="auto"
       inkscape:stockid="DotM">
      <path
         transform="scale(0.4) translate(7.4, 1)"
         style="fill-rule:evenodd;stroke:#000000;stroke-width:1pt;stroke-opacity:1;fill:#000000;fill-opacity:1"
         d="M -2.5,-1.0 C -2.5,1.7600000 -4.7400000,4.0 -7.5,4.0 C -10.260000,4.0 -12.5,1.7600000 -12.5,-1.0 C -12.5,-3.7600000 -10.260000,-6.0 -7.5,-6.0 C -4.7400000,-6.0 -2.5,-3.7600000 -2.5,-1.0 z "
         id="path8376" />
    </marker>
    <marker
       inkscape:isstock="true"
       style="overflow:visible;"
       id="marker5610"
       refX="0.0"
       refY="0.0"
       orient="auto"
       inkscape:stockid="Arrow1Mend">
      <path
         transform="scale(0.4) rotate(180) translate(10,0)"
         style="fill-rule:evenodd;stroke:#aa0000;stroke-width:1pt;stroke-opacity:1;fill:#aa0000;fill-opacity:1"
         d="M 0.0,0.0 L 5.0,-5.0 L -12.5,0.0 L 5.0,5.0 L 0.0,0.0 z "
         id="path5608" />
    </marker>
    <marker
       inkscape:isstock="true"
       style="overflow:visible;"
       id="marker5440"
       refX="0.0"
       refY="0.0"
       orient="auto"
       inkscape:stockid="Arrow1Mend">
      <path
         transform="scale(0.4) rotate(180) translate(10,0)"
         style="fill-rule:evenodd;stroke:#aa0000;stroke-width:1pt;stroke-opacity:1;fill:#aa0000;fill-opacity:1"
         d="M 0.0,0.0 L 5.0,-5.0 L -12.5,0.0 L 5.0,5.0 L 0.0,0.0 z "
         id="path5438" />
    </marker>
    <marker
       inkscape:stockid="DotM"
       orient="auto"
       refY="0.0"
       refX="0.0"
       id="DotM"
       style="overflow:visible"
       inkscape:isstock="true"
       inkscape:collect="always">
      <path
         id="path4831"
         d="M -2.5,-1.0 C -2.5,1.7600000 -4.7400000,4.0 -7.5,4.0 C -10.260000,4.0 -12.5,1.7600000 -12.5,-1.0 C -12.5,-3.7600000 -10.260000,-6.0 -7.5,-6.0 C -4.7400000,-6.0 -2.5,-3.7600000 -2.5,-1.0 z "
         style="fill-rule:evenodd;stroke:#000000;stroke-width:1pt;stroke-opacity:1;fill:#000000;fill-opacity:1"
         transform="scale(0.4) translate(7.4, 1)" />
    </marker>
    <marker
       inkscape:stockid="DotS"
       orient="auto"
       refY="0.0"
       refX="0.0"
       id="DotS"
       style="overflow:visible"
       inkscape:isstock="true">
      <path
         id="path4834"
         d="M -2.5,-1.0 C -2.5,1.7600000 -4.7400000,4.0 -7.5,4.0 C -10.260000,4.0 -12.5,1.7600000 -12.5,-1.0 C -12.5,-3.7600000 -10.260000,-6.0 -7.5,-6.0 C -4.7400000,-6.0 -2.5,-3.7600000 -2.5,-1.0 z "
         style="fill-rule:evenodd;stroke:#000000;stroke-width:1pt;stroke-opacity:1;fill:#000000;fill-opacity:1"
         transform="scale(0.2) translate(7.4, 1)" />
    </marker>
    <marker
       inkscape:stockid="Arrow1Mend"
       orient="auto"
       refY="0.0"
       refX="0.0"
       id="marker5151"
       style="overflow:visible;"
       inkscape:isstock="true"
       inkscape:collect="always">
      <path
         id="path5149"
         d="M 0.0,0.0 L 5.0,-5.0 L -12.5,0.0 L 5.0,5.0 L 0.0,0.0 z "
         style="fill-rule:evenodd;stroke:#000000;stroke-width:1pt;stroke-opacity:1;fill:#000000;fill-opacity:1"
         transform="scale(0.4) rotate(180) translate(10,0)" />
    </marker>
    <marker
       inkscape:stockid="Arrow1Mend"
       orient="auto"
       refY="0.0"
       refX="0.0"
       id="Arrow1Mend"
       style="overflow:visible;"
       inkscape:isstock="true"
       inkscape:collect="always">
      <path
         id="path4776"
         d="M 0.0,0.0 L 5.0,-5.0 L -12.5,0.0 L 5.0,5.0 L 0.0,0.0 z "
         style="fill-rule:evenodd;stroke:#000000;stroke-width:1pt;stroke-opacity:1;fill:#000000;fill-opacity:1"
         transform="scale(0.4) rotate(180) translate(10,0)" />
    </marker>
  </defs>
  <sodipodi:namedview
     id="base"
     pagecolor="#ffffff"
     bordercolor="#666666"
     borderopacity="1.0"
     inkscape:pageopacity="0.0"
     inkscape:pageshadow="2"
     inkscape:zoom="1.3697276"
     inkscape:cx="245.79284"
     inkscape:cy="245.56057"
     inkscape:document-units="mm"
     inkscape:current-layer="layer1"
     showgrid="false"
     inkscape:window-width="1316"
     inkscape:window-height="1028"
     inkscape:window-x="65"
     inkscape:window-y="24"
     inkscape:window-maximized="0" />
  <metadata
     id="metadata5">
    <rdf:RDF>
      <cc:Work
         rdf:about="">
        <dc:format>image/svg+xml</dc:format>
        <dc:type
           rdf:resource="http://purl.org/dc/dcmitype/StillImage" />
        <dc:title></dc:title>
      </cc:Work>
    </rdf:RDF>
  </metadata>
  <g
     inkscape:label="Layer 1"
     inkscape:groupmode="layer"
     id="layer1"
     transform="translate(0,-167)">
    <rect
       style="opacity:1;fill:none;fill-opacity:1;stroke:#000000;stroke-width:0.40000001;stroke-linecap:round;stroke-linejoin:round;stroke-miterlimit:4;stroke-dasharray:none;stroke-dashoffset:0;stroke-opacity:1"
       id="rect4747"
       width="69.080711"
       height="18.363228"
       x="10.753473"
       y="178.30507" />
    <path
       style="fill:none;fill-rule:evenodd;stroke:#000000;stroke-width:0.50000006;stroke-linecap:butt;stroke-linejoin:miter;stroke-miterlimit:4;stroke-dasharray:none;stroke-opacity:1;marker-end:url(#Arrow1Mend)"
       d="m 23.287109,196.66843 v 89.26742"
       id="path4765"
       inkscape:connector-curvature="0" />
    <g
       id="g5078"
       transform="translate(3.1750001,0.66614083)" />
    <g
       id="g5105"
       transform="rotate(-90,44.112267,225.84183)" />
    <g
       transform="translate(5.2153589,49.948081)"
       id="g5335">
      <g
         transform="rotate(-90,42.187322,221.4168)"
         id="g5307">
        <rect
           style="opacity:1;fill:#ff7f2a;fill-opacity:1;stroke:#000000;stroke-width:0.56499994;stroke-linecap:round;stroke-linejoin:round;stroke-miterlimit:4;stroke-dasharray:none;stroke-dashoffset:0;stroke-opacity:1"
           id="rect5301"
           width="10.201794"
           height="30.605381"
           x="207.5157"
           y="-64.417038"
           transform="rotate(90)" />
        <text
           xml:space="preserve"
           style="font-style:normal;font-variant:normal;font-weight:normal;font-stretch:normal;font-size:7.05555534px;line-height:125%;font-family:arial;-inkscape-font-specification:'arial, Normal';font-variant-ligatures:normal;font-variant-caps:normal;font-variant-numeric:normal;font-feature-settings:normal;text-align:start;letter-spacing:-0.02910417px;word-spacing:0px;writing-mode:lr-tb;text-anchor:start;fill:#000000;fill-opacity:1;stroke:none;stroke-width:0.26458332px;stroke-linecap:butt;stroke-linejoin:miter;stroke-opacity:1"
           x="42.641426"
           y="214.60373"
           id="text5305"><tspan
             sodipodi:role="line"
             id="tspan5303"
             x="42.641426"
             y="214.60373"
             style="font-size:5.64444447px;stroke-width:0.26458332px">Filter</tspan></text>
      </g>
      <g
         transform="rotate(-90,39.349775,224.25435)"
         id="g5315">
        <rect
           transform="rotate(90)"
           y="-64.417038"
           x="223.39072"
           height="30.605381"
           width="10.201794"
           id="rect5309"
           style="opacity:1;fill:#80b3ff;fill-opacity:1;stroke:#000000;stroke-width:0.56499994;stroke-linecap:round;stroke-linejoin:round;stroke-miterlimit:4;stroke-dasharray:none;stroke-dashoffset:0;stroke-opacity:1" />
        <text
           id="text5313"
           y="230.47874"
           x="39.049652"
           style="font-style:normal;font-variant:normal;font-weight:normal;font-stretch:normal;font-size:7.05555534px;line-height:125%;font-family:arial;-inkscape-font-specification:'arial, Normal';font-variant-ligatures:normal;font-variant-caps:normal;font-variant-numeric:normal;font-feature-settings:normal;text-align:start;letter-spacing:-0.02910417px;word-spacing:0px;writing-mode:lr-tb;text-anchor:start;fill:#000000;fill-opacity:1;stroke:none;stroke-width:0.26458332px;stroke-linecap:butt;stroke-linejoin:miter;stroke-opacity:1"
           xml:space="preserve"><tspan
             style="font-size:5.64444447px;stroke-width:0.26458332px"
             y="230.47874"
             x="39.049652"
             id="tspan5311"
             sodipodi:role="line">Reroute</tspan></text>
      </g>
      <rect
         style="opacity:1;fill:#87de87;fill-opacity:1;stroke:#000000;stroke-width:0.56499994;stroke-linecap:round;stroke-linejoin:round;stroke-miterlimit:4;stroke-dasharray:none;stroke-dashoffset:0;stroke-opacity:1"
         id="rect5317"
         width="10.201794"
         height="30.605381"
         x="239.26573"
         y="-64.417038"
         transform="translate(-190.58844,263.60412)" />
      <text
         xml:space="preserve"
         style="font-style:normal;font-variant:normal;font-weight:normal;font-stretch:normal;font-size:5.64444447px;line-height:125%;font-family:arial;-inkscape-font-specification:'arial, Normal';font-variant-ligatures:normal;font-variant-caps:normal;font-variant-numeric:normal;font-feature-settings:normal;text-align:start;letter-spacing:-0.02910417px;word-spacing:0px;writing-mode:lr-tb;text-anchor:start;fill:#000000;fill-opacity:1;stroke:none;stroke-width:0.26458332px;stroke-linecap:butt;stroke-linejoin:miter;stroke-opacity:1"
         x="36.577618"
         y="246.38821"
         id="text5321"
         transform="rotate(-90,36.507845,227.09628)"><tspan
           sodipodi:role="line"
           id="tspan5319"
           x="36.577618"
           y="246.38821"
           style="font-size:5.64444447px;stroke-width:0.26458332px">Transform</tspan></text>
      <rect
         style="opacity:1;fill:none;fill-opacity:1;stroke:#000000;stroke-width:0.56499994;stroke-linecap:round;stroke-linejoin:round;stroke-miterlimit:4;stroke-dasharray:none;stroke-dashoffset:0;stroke-opacity:1"
         id="rect5323"
         width="41.390133"
         height="30.605381"
         x="243.77083"
         y="-64.417038"
         transform="translate(-184.90458,263.60412)" />
      <text
         xml:space="preserve"
         style="font-style:normal;font-variant:normal;font-weight:normal;font-stretch:normal;font-size:7.05555534px;line-height:125%;font-family:arial;-inkscape-font-specification:'arial, Normal';font-variant-ligatures:normal;font-variant-caps:normal;font-variant-numeric:normal;font-feature-settings:normal;text-align:center;letter-spacing:-0.02910417px;word-spacing:0px;writing-mode:lr-tb;text-anchor:middle;fill:#000000;fill-opacity:1;stroke:none;stroke-width:0.26458332px;stroke-linecap:butt;stroke-linejoin:miter;stroke-opacity:1"
         x="79.420067"
         y="212.64836"
         id="text5327"><tspan
           sodipodi:role="line"
           id="tspan5325"
           x="79.405518"
           y="212.64836"
           style="text-align:center;text-anchor:middle;stroke-width:0.26458332px">Root files</tspan><tspan
           sodipodi:role="line"
           x="79.405518"
           y="221.4678"
           style="text-align:center;text-anchor:middle;stroke-width:0.26458332px"
           id="tspan8370">TH1</tspan></text>
      <text
         id="text5331"
         y="235.22461"
         x="27.849566"
         style="font-style:normal;font-variant:normal;font-weight:normal;font-stretch:normal;font-size:6.3499999px;line-height:125%;font-family:arial;-inkscape-font-specification:'arial, Normal';font-variant-ligatures:normal;font-variant-caps:normal;font-variant-numeric:normal;font-feature-settings:normal;text-align:start;letter-spacing:-0.02910417px;word-spacing:0px;writing-mode:lr-tb;text-anchor:start;fill:#000000;fill-opacity:1;stroke:none;stroke-width:0.26458332px;stroke-linecap:butt;stroke-linejoin:miter;stroke-opacity:1"
         xml:space="preserve"><tspan
           style="font-size:6.3499999px;stroke-width:0.26458332px"
           y="235.22461"
           x="27.849566"
           id="tspan5329"
           sodipodi:role="line">slug: layer-b</tspan></text>
      <path
         inkscape:connector-curvature="0"
         id="path5333"
         d="m 18.217489,214.48977 h 8.744393"
         style="fill:none;fill-rule:evenodd;stroke:#000000;stroke-width:0.5;stroke-linecap:butt;stroke-linejoin:miter;stroke-miterlimit:4;stroke-dasharray:none;stroke-opacity:1;marker-start:url(#DotM);marker-end:url(#marker5151)" />
    </g>
    <g
       id="g5416"
       transform="translate(14.269911,6.6591614)">
      <circle
         r="0.66984892"
         cy="283.24234"
         cx="9.0171976"
         id="path5407"
         style="opacity:1;fill:#000000;fill-opacity:1;stroke:none;stroke-width:0.5;stroke-linecap:round;stroke-linejoin:round;stroke-miterlimit:4;stroke-dasharray:none;stroke-dashoffset:0;stroke-opacity:1" />
      <circle
         style="opacity:1;fill:#000000;fill-opacity:1;stroke:none;stroke-width:0.5;stroke-linecap:round;stroke-linejoin:round;stroke-miterlimit:4;stroke-dasharray:none;stroke-dashoffset:0;stroke-opacity:1"
         id="circle5409"
         cx="9.0171976"
         cy="285.88821"
         r="0.66984892" />
      <circle
         r="0.66984892"
         cy="288.53409"
         cx="9.0171976"
         id="circle5411"
         style="opacity:1;fill:#000000;fill-opacity:1;stroke:none;stroke-width:0.5;stroke-linecap:round;stroke-linejoin:round;stroke-miterlimit:4;stroke-dasharray:none;stroke-dashoffset:0;stroke-opacity:1" />
    </g>
    <path
       style="fill:none;fill-rule:evenodd;stroke:#aa0000;stroke-width:0.26499999;stroke-linecap:butt;stroke-linejoin:miter;stroke-miterlimit:4;stroke-dasharray:none;stroke-opacity:1;marker-end:url(#marker5440)"
       d="m 59.168593,205.46246 c 4.31819,-9.37086 19.891767,-7.35871 23.94433,-0.515"
       id="path5430"
       inkscape:connector-curvature="0"
       sodipodi:nodetypes="cc" />
    <text
       xml:space="preserve"
       style="font-style:normal;font-variant:normal;font-weight:normal;font-stretch:normal;font-size:4.23333311px;line-height:125%;font-family:arial;-inkscape-font-specification:'arial, Normal';font-variant-ligatures:normal;font-variant-caps:normal;font-variant-numeric:normal;font-feature-settings:normal;text-align:center;letter-spacing:-0.02910417px;word-spacing:0px;writing-mode:lr-tb;text-anchor:middle;fill:#aa0000;fill-opacity:1;stroke:none;stroke-width:0.26458332px;stroke-linecap:butt;stroke-linejoin:miter;stroke-opacity:1"
       x="99.347076"
       y="199.19958"
       id="text5522"><tspan
         sodipodi:role="line"
         x="99.332527"
         y="199.19958"
         style="font-size:4.23333311px;text-align:center;text-anchor:middle;fill:#aa0000;fill-opacity:1;stroke-width:0.26458332px"
         id="tspan5524">operand lookup</tspan><tspan
         sodipodi:role="line"
         x="99.332527"
         y="204.49126"
         style="font-size:4.23333311px;text-align:center;text-anchor:middle;fill:#aa0000;fill-opacity:1;stroke-width:0.26458332px"
         id="tspan5528">(layer-local)</tspan></text>
    <path
       style="fill:none;fill-rule:evenodd;stroke:#aa0000;stroke-width:0.26458332px;stroke-linecap:butt;stroke-linejoin:miter;stroke-opacity:1;marker-end:url(#marker5610)"
       d="M 59.168593,205.46246 C 66.405496,171.36711 47.305438,168.1416 40.553852,177.12364"
       id="path5606"
       inkscape:connector-curvature="0"
       sodipodi:nodetypes="cc" />
    <text
       id="text7980"
       y="170.99066"
       x="67.968925"
       style="font-style:normal;font-variant:normal;font-weight:normal;font-stretch:normal;font-size:4.23333311px;line-height:125%;font-family:arial;-inkscape-font-specification:'arial, Normal';font-variant-ligatures:normal;font-variant-caps:normal;font-variant-numeric:normal;font-feature-settings:normal;text-align:center;letter-spacing:-0.02910417px;word-spacing:0px;writing-mode:lr-tb;text-anchor:middle;fill:#aa0000;fill-opacity:1;stroke:none;stroke-width:0.26458332px;stroke-linecap:butt;stroke-linejoin:miter;stroke-opacity:1"
       xml:space="preserve"><tspan
         id="tspan7976"
         style="font-size:4.23333311px;text-align:center;text-anchor:middle;fill:#aa0000;fill-opacity:1;stroke-width:0.26458332px"
         y="170.99066"
         x="67.954376"
         sodipodi:role="line">operand lookup</tspan><tspan
         id="tspan7978"
         style="font-size:4.23333311px;text-align:center;text-anchor:middle;fill:#aa0000;fill-opacity:1;stroke-width:0.26458332px"
         y="176.28233"
         x="67.954376"
         sodipodi:role="line">(top layer)</tspan></text>
    <g
       id="g5141"
       transform="translate(5.2153589,8.1439095)">
      <g
         id="g5088"
         transform="rotate(-90,42.187322,221.4168)">
        <rect
           transform="rotate(90)"
           y="-64.417038"
           x="207.5157"
           height="30.605381"
           width="10.201794"
           id="rect5049"
           style="opacity:1;fill:#ff7f2a;fill-opacity:1;stroke:#000000;stroke-width:0.56499994;stroke-linecap:round;stroke-linejoin:round;stroke-miterlimit:4;stroke-dasharray:none;stroke-dashoffset:0;stroke-opacity:1" />
        <text
           id="text5053"
           y="214.60373"
           x="42.641426"
           style="font-style:normal;font-variant:normal;font-weight:normal;font-stretch:normal;font-size:7.05555534px;line-height:125%;font-family:arial;-inkscape-font-specification:'arial, Normal';font-variant-ligatures:normal;font-variant-caps:normal;font-variant-numeric:normal;font-feature-settings:normal;text-align:start;letter-spacing:-0.02910417px;word-spacing:0px;writing-mode:lr-tb;text-anchor:start;fill:#000000;fill-opacity:1;stroke:none;stroke-width:0.26458332px;stroke-linecap:butt;stroke-linejoin:miter;stroke-opacity:1"
           xml:space="preserve"><tspan
             style="font-size:5.64444447px;stroke-width:0.26458332px"
             y="214.60373"
             x="42.641426"
             id="tspan5051"
             sodipodi:role="line">Filter</tspan></text>
      </g>
      <g
         id="g5083"
         transform="rotate(-90,39.349775,224.25435)">
        <rect
           style="opacity:1;fill:#80b3ff;fill-opacity:1;stroke:#000000;stroke-width:0.56499994;stroke-linecap:round;stroke-linejoin:round;stroke-miterlimit:4;stroke-dasharray:none;stroke-dashoffset:0;stroke-opacity:1"
           id="rect5055"
           width="10.201794"
           height="30.605381"
           x="223.39072"
           y="-64.417038"
           transform="rotate(90)" />
        <text
           xml:space="preserve"
           style="font-style:normal;font-variant:normal;font-weight:normal;font-stretch:normal;font-size:7.05555534px;line-height:125%;font-family:arial;-inkscape-font-specification:'arial, Normal';font-variant-ligatures:normal;font-variant-caps:normal;font-variant-numeric:normal;font-feature-settings:normal;text-align:start;letter-spacing:-0.02910417px;word-spacing:0px;writing-mode:lr-tb;text-anchor:start;fill:#000000;fill-opacity:1;stroke:none;stroke-width:0.26458332px;stroke-linecap:butt;stroke-linejoin:miter;stroke-opacity:1"
           x="39.049652"
           y="230.47874"
           id="text5059"><tspan
             sodipodi:role="line"
             id="tspan5057"
             x="39.049652"
             y="230.47874"
             style="font-size:5.64444447px;stroke-width:0.26458332px">Reroute</tspan></text>
      </g>
      <rect
         transform="translate(-190.58844,263.60412)"
         y="-64.417038"
         x="239.26573"
         height="30.605381"
         width="10.201794"
         id="rect5061"
         style="opacity:1;fill:#87de87;fill-opacity:1;stroke:#000000;stroke-width:0.56499994;stroke-linecap:round;stroke-linejoin:round;stroke-miterlimit:4;stroke-dasharray:none;stroke-dashoffset:0;stroke-opacity:1" />
      <text
         transform="rotate(-90,36.507845,227.09628)"
         id="text5065"
         y="246.38821"
         x="36.577618"
         style="font-style:normal;font-variant:normal;font-weight:normal;font-stretch:normal;font-size:5.64444447px;line-height:125%;font-family:arial;-inkscape-font-specification:'arial, Normal';font-variant-ligatures:normal;font-variant-caps:normal;font-variant-numeric:normal;font-feature-settings:normal;text-align:start;letter-spacing:-0.02910417px;word-spacing:0px;writing-mode:lr-tb;text-anchor:start;fill:#000000;fill-opacity:1;stroke:none;stroke-width:0.26458332px;stroke-linecap:butt;stroke-linejoin:miter;stroke-opacity:1"
         xml:space="preserve"><tspan
           style="font-size:5.64444447px;stroke-width:0.26458332px"
           y="246.38821"
           x="36.577618"
           id="tspan5063"
           sodipodi:role="line">Transform</tspan></text>
      <rect
         transform="translate(-184.90458,263.60412)"
         y="-64.417038"
         x="243.77083"
         height="30.605381"
         width="41.390133"
         id="rect5067"
         style="opacity:1;fill:none;fill-opacity:1;stroke:#000000;stroke-width:0.56499994;stroke-linecap:round;stroke-linejoin:round;stroke-miterlimit:4;stroke-dasharray:none;stroke-dashoffset:0;stroke-opacity:1" />
      <text
         id="text5109"
         y="212.64836"
         x="79.420067"
         style="font-style:normal;font-variant:normal;font-weight:normal;font-stretch:normal;font-size:7.05555534px;line-height:125%;font-family:arial;-inkscape-font-specification:'arial, Normal';font-variant-ligatures:normal;font-variant-caps:normal;font-variant-numeric:normal;font-feature-settings:normal;text-align:center;letter-spacing:-0.02910417px;word-spacing:0px;writing-mode:lr-tb;text-anchor:middle;fill:#000000;fill-opacity:1;stroke:none;stroke-width:0.26458332px;stroke-linecap:butt;stroke-linejoin:miter;stroke-opacity:1"
         xml:space="preserve"><tspan
           style="text-align:center;text-anchor:middle;stroke-width:0.26458332px"
           y="212.64836"
           x="79.405518"
           id="tspan5107"
           sodipodi:role="line">Root files</tspan><tspan
           style="text-align:center;text-anchor:middle;stroke-width:0.26458332px"
           y="221.4678"
           x="79.405518"
           sodipodi:role="line"
           id="tspan8368">TH1</tspan></text>
      <path
         style="fill:none;fill-rule:evenodd;stroke:#000000;stroke-width:0.5;stroke-linecap:butt;stroke-linejoin:miter;stroke-miterlimit:4;stroke-dasharray:none;stroke-opacity:1;marker-start:url(#marker8378);marker-end:url(#marker8430)"
         d="m 18.217489,214.48977 h 8.744393"
         id="path5147"
         inkscape:connector-curvature="0" />
      <text
         xml:space="preserve"
         style="font-style:normal;font-variant:normal;font-weight:normal;font-stretch:normal;font-size:6.3499999px;line-height:125%;font-family:arial;-inkscape-font-specification:'arial, Normal';font-variant-ligatures:normal;font-variant-caps:normal;font-variant-numeric:normal;font-feature-settings:normal;text-align:start;letter-spacing:-0.02910417px;word-spacing:0px;writing-mode:lr-tb;text-anchor:start;fill:#000000;fill-opacity:1;stroke:none;stroke-width:0.26458332px;stroke-linecap:butt;stroke-linejoin:miter;stroke-opacity:1"
         x="28.093058"
         y="234.98111"
         id="text5145"><tspan
           sodipodi:role="line"
           id="tspan5143"
           x="28.093058"
           y="234.98111"
           style="font-size:6.3499999px;stroke-width:0.26458332px">slug: layer-a</tspan></text>
    </g>
    <text
       xml:space="preserve"
       style="font-style:normal;font-variant:normal;font-weight:normal;font-stretch:normal;font-size:7.05555534px;line-height:125%;font-family:arial;-inkscape-font-specification:'arial, Normal';font-variant-ligatures:normal;font-variant-caps:normal;font-variant-numeric:normal;font-feature-settings:normal;text-align:start;letter-spacing:-0.02910417px;word-spacing:0px;writing-mode:lr-tb;text-anchor:start;fill:#000000;fill-opacity:1;stroke:none;stroke-width:0.26458332px;stroke-linecap:butt;stroke-linejoin:miter;stroke-opacity:1"
       x="13.430585"
       y="187.07195"
       id="text4751"><tspan
         sodipodi:role="line"
         x="13.430585"
         y="187.07195"
         style="stroke-width:0.26458332px"
         id="tspan4755">Histogram lookup</tspan></text>
    <text
       xml:space="preserve"
       style="font-style:normal;font-variant:normal;font-weight:normal;font-stretch:normal;font-size:4.23333311px;line-height:125%;font-family:monospace;-inkscape-font-specification:monospace;font-variant-ligatures:normal;font-variant-caps:normal;font-variant-numeric:normal;font-feature-settings:normal;text-align:start;letter-spacing:-0.02910417px;word-spacing:0px;writing-mode:lr-tb;text-anchor:start;fill:#000000;fill-opacity:1;stroke:none;stroke-width:0.26458332px;stroke-linecap:butt;stroke-linejoin:miter;stroke-opacity:1"
       x="13.538172"
       y="193.40822"
       id="text4763"><tspan
         sodipodi:role="line"
         id="tspan4761"
         x="13.538172"
         y="193.40822"
         style="font-style:normal;font-variant:normal;font-weight:normal;font-stretch:normal;font-size:4.23333311px;font-family:monospace;-inkscape-font-specification:monospace;stroke-width:0.26458332px"><tspan
   style="-inkscape-font-specification:arial;font-family:arial;font-weight:normal;font-style:normal;font-stretch:normal;font-variant:normal"
   id="tspan8546">e.g.</tspan> wsiassembler -t hist</tspan></text>
    <text
       xml:space="preserve"
       style="font-style:normal;font-variant:normal;font-weight:normal;font-stretch:normal;font-size:5.64444447px;line-height:125%;font-family:arial;-inkscape-font-specification:'arial, Normal';font-variant-ligatures:normal;font-variant-caps:normal;font-variant-numeric:normal;font-feature-settings:normal;text-align:start;letter-spacing:-0.02910417px;word-spacing:0px;writing-mode:lr-tb;text-anchor:start;fill:#999999;fill-opacity:1;stroke:none;stroke-width:0.26458332px;stroke-linecap:butt;stroke-linejoin:miter;stroke-opacity:1"
       x="-268.31525"
       y="18.992403"
       id="text8374"
       transform="rotate(-90)"><tspan
         sodipodi:role="line"
         id="tspan8372"
         x="-268.31525"
         y="18.992403"
         style="font-size:5.64444447px;fill:#999999;stroke-width:0.26458332px">Chain of responsibility</tspan></text>
  </g>
</svg>
